{
    "sourceFile": "README.md",
    "activeCommit": 0,
    "commits": [
        {
            "activePatchIndex": 0,
            "patches": [
                {
                    "date": 1667918461241,
                    "content": "Index: \n===================================================================\n--- \n+++ \n"
                }
            ],
            "date": 1667918461241,
            "name": "Commit-0",
            "content": "Contribution: 2021-11-08 20:00\n"
        }
    ]
}